<svg width="1440" height="346" viewBox="0 0 1440 346" fill="none" xmlns="http://www.w3.org/2000/svg">
<path d="M1022.33 371.402C1030.41 349.553 1058.55 333.752 1115.93 328.695C1456.41 298.681 1325 -395.627 1655.53 328.695C1919.95 908.152 1366.15 827.583 1056.19 714.866L-25 600.816L1022.33 371.402Z" fill="url(#paint0_linear)"/>
<defs>
<linearGradient id="paint0_linear" x1="850" y1="-47.832" x2="850" y2="795" gradientUnits="userSpaceOnUse">
<stop stop-color="#07748C"/>
<stop offset="1" stop-color="#07748C"/>
</linearGradient>
</defs>
</svg>
